<?xml version="1.0" encoding="utf-8"?>
<!-- Generator: Adobe Illustrator 21.0.2, SVG Export Plug-In . SVG Version: 6.00 Build 0)  -->
<svg version="1.1" id="Layer_1" xmlns="http://www.w3.org/2000/svg" xmlns:xlink="http://www.w3.org/1999/xlink" x="0px" y="0px"
	 viewBox="0 0 3316 689" style="enable-background:new 0 0 3316 689;" xml:space="preserve">
<style type="text/css">
	.st0{fill:#177386;}
	.st1{fill:#F2F2F2;}
	.st2{fill:#CDD6E0;}
	.st3{fill:#FFFFFF;}
	.st4{fill:#FFFFFF;stroke:#177386;stroke-width:2;stroke-miterlimit:10;}
	.st5{fill:none;stroke:#177386;stroke-width:2;stroke-miterlimit:10;}
	.st6{fill:#06474C;}
</style>
<path class="st0" d="M-1825.4,65.8c41.6,0,74.2,57.6,74.2,131.7c0,2.6-2.6,5.1-5.1,5.1c-2.6,0-5.1-2.6-5.1-5.1
	c0-67.1-28.8-121.5-63.9-121.5s-63.9,54.4-63.9,121.5c0,2.6-2.6,5.1-5.1,5.1s-5.1-2.6-5.1-5.1C-1899.6,123.4-1867,65.8-1825.4,65.8z
	"/>
<path class="st0" d="M-1619.9,185.1h-411l-23,359.2c-1,16.3,12.5,30.7,28.8,30.7h399.5c16.3,0,29.8-14.4,28.8-30.7L-1619.9,185.1z"
	/>
<polygon class="st1" points="-1619.9,185.5 -2030.9,185.5 -1964.6,170.9 -2004,158.5 -1646.8,158.5 -1686.1,170.9 "/>
<polygon class="st2" points="-1686.1,170.9 -1685.2,185.5 -1619.9,185.5 "/>
<polygon class="st0" points="-1646.8,158.5 -1643.9,180.4 -1686.1,170.9 "/>
<polygon class="st2" points="-1964.6,170.9 -1965.6,185.5 -2030.9,185.5 "/>
<polygon class="st0" points="-2004,158.5 -2006.9,180.4 -1964.6,170.9 "/>
<path class="st0" d="M-1825.4,40.5c62.4,0,111.4,86.4,111.4,197.8c0,3.8-3.8,7.7-7.7,7.7c-3.8,0-7.7-3.8-7.7-7.7
	c0-100.8-43.2-182.5-96-182.5s-96,81.6-96,182.5c0,3.8-3.8,7.7-7.7,7.7s-7.7-3.8-7.7-7.7C-1936.8,126.9-1887.8,40.5-1825.4,40.5z"/>
<path class="st3" d="M-1883.5,449.1l-1.5,31.8c-0.1,2.6-2.4,4.6-5,4.5l-31.8-1.5c-2.6-0.1-4.6-2.4-4.5-5l1.5-31.8
	c0.1-2.6,2.4-4.6,5-4.5l31.8,1.5C-1885.5,444.2-1883.4,446.5-1883.5,449.1z"/>
<path class="st3" d="M-1816.6,293.1L-1829,323c-0.9,2.3-3.6,3.4-5.9,2.4l-29.9-12.4c-2.3-0.9-3.4-3.6-2.4-5.9l12.4-29.9
	c0.9-2.3,3.6-3.4,5.9-2.4l29.9,12.4C-1816.8,288.2-1815.7,290.8-1816.6,293.1z"/>
<path class="st3" d="M-1891.7,341.9l-15.2,55.3c-1.7,6.4-8.4,10.1-14.7,8.4l-55.3-15.2c-6.4-1.7-10.1-8.4-8.4-14.7l15.2-55.3
	c1.7-6.4,8.4-10.1,14.7-8.4l55.3,15.2C-1893.7,328.9-1889.9,335.5-1891.7,341.9z"/>
<g>
	<rect x="-1768.9" y="254.4" class="st4" width="502.4" height="251.2"/>
	<path class="st0" d="M-1669.8,306.2l-24.4,32.6h-2.8l-23.9-32.7v54.5h-14.1v-75h16.3l23.5,32.3l23.5-32.3h16.2v75h-14.1V306.2z"/>
	<path class="st0" d="M-1589.1,346.4h-39.2l-6.4,14.1h-15.3l33.6-75h15.4l33.7,75h-15.4L-1589.1,346.4z M-1608.7,301.3l-13.9,31.9
		h27.9L-1608.7,301.3z"/>
	<path class="st0" d="M-1515.7,303.7c-2.6-4.3-9.6-8.4-17.8-8.4c-10.5,0-15.5,4.4-15.5,10c0,6.5,7.7,8.4,16.7,9.4
		c15.6,1.9,30.2,6,30.2,23.9c0,16.7-14.8,23.9-31.5,23.9c-15.3,0-27.1-4.7-32.7-18.4l11.8-6.1c3.3,8.3,12,11.9,21.1,11.9
		c8.9,0,17.2-3.1,17.2-11.3c0-7.1-7.4-10-17.4-11c-15.3-1.8-29.5-5.9-29.5-22.7c0-15.4,15.2-21.8,29-21.9c11.7,0,23.8,3.3,29.5,14.9
		L-1515.7,303.7z"/>
	<path class="st0" d="M-1471.8,298.4h-23.8v-12.9c21.6,0,40,0,61.7,0v12.9h-23.8v62.1h-14.1V298.4z"/>
	<path class="st0" d="M-1369.3,360.6h-56.2c0-25,0-50,0-75h56.2v13.7h-42.1v17.3h40.6v13.2h-40.6v16.9h42.1V360.6z"/>
	<path class="st0" d="M-1298.1,286l-33.3,35.9l36.1,37.8v0.9h-17.5l-31.4-33.2v33.2h-14.1v-75h14.1v31.7l28.5-31.7h17.6V286z"/>
	<path class="st5" d="M-1680.8,414.8c-2.6-4.3-9.7-8.5-18-8.5c-10.6,0-15.7,4.4-15.7,10.1c0,6.6,7.8,8.5,16.9,9.5
		c15.8,1.9,30.5,6.1,30.5,24.2c0,16.9-15,24.2-31.9,24.2c-15.5,0-27.4-4.8-33-18.6l11.9-6.2c3.4,8.3,12.1,12,21.3,12
		c9,0,17.4-3.1,17.4-11.4c0-7.2-7.5-10.1-17.5-11.2c-15.5-1.8-29.8-6-29.8-23c0-15.6,15.4-22,29.4-22.1c11.8,0,24.1,3.4,29.8,15.1
		L-1680.8,414.8z"/>
	<path class="st5" d="M-1636.4,409.5h-24.1v-13c21.9,0,40.4,0,62.4,0v13h-24v62.8h-14.3V409.5z"/>
	<path class="st5" d="M-1514.8,434.8c-0.2,19.6-12.2,39.2-38.9,39.2c-26.7,0-39-19.2-39-39.1c0-19.9,12.8-40,39-40
		C-1527.6,395-1514.5,415-1514.8,434.8z M-1578.6,435.1c0.3,12.5,7,25.8,24.9,25.8c17.9,0,24.6-13.4,24.8-25.9
		c0.2-12.8-6.9-27.1-24.8-27.1C-1571.5,408-1578.9,422.4-1578.6,435.1z"/>
	<path class="st5" d="M-1436.9,472.3h-17L-1476,447h-13.8v25.4h-14.3v-75.9c12,0,24.1,0.1,36.1,0.1c17.9,0.1,27.3,12,27.3,25.1
		c0,10.4-4.8,20.9-19.2,23.8l23,25.9V472.3z M-1489.8,409.8v24.3h21.8c9.1,0,13-6.1,13-12.1c0-6.1-4-12.1-13-12.1H-1489.8z"/>
	<path class="st5" d="M-1366.5,472.3h-56.8c0-25.2,0-50.6,0-75.8h56.8v13.9h-42.6v17.4h41.1v13.3h-41.1v17.1h42.6V472.3z"/>
</g>
<path class="st0" d="M-785.4,65.8c41.6,0,74.2,57.6,74.2,131.7c0,2.6-2.6,5.1-5.1,5.1c-2.6,0-5.1-2.6-5.1-5.1
	c0-67.1-28.8-121.5-63.9-121.5c-35.2,0-63.9,54.4-63.9,121.5c0,2.6-2.6,5.1-5.1,5.1c-2.6,0-5.1-2.6-5.1-5.1
	C-859.6,123.4-827,65.8-785.4,65.8z"/>
<path class="st0" d="M-579.9,185.1h-411l-23,359.2c-1,16.3,12.5,30.7,28.8,30.7h399.5c16.3,0,29.8-14.4,28.8-30.7L-579.9,185.1z"/>
<polygon class="st1" points="-579.9,185.5 -990.9,185.5 -924.6,170.9 -964,158.5 -606.8,158.5 -646.1,170.9 "/>
<polygon class="st2" points="-646.1,170.9 -645.2,185.5 -579.9,185.5 "/>
<polygon class="st0" points="-606.8,158.5 -603.9,180.4 -646.1,170.9 "/>
<polygon class="st2" points="-924.6,170.9 -925.6,185.5 -990.9,185.5 "/>
<polygon class="st0" points="-964,158.5 -966.9,180.4 -924.6,170.9 "/>
<path class="st0" d="M-785.4,40.5c62.4,0,111.4,86.4,111.4,197.8c0,3.8-3.8,7.7-7.7,7.7c-3.8,0-7.7-3.8-7.7-7.7
	c0-100.8-43.2-182.5-96-182.5c-52.8,0-96,81.6-96,182.5c0,3.8-3.8,7.7-7.7,7.7s-7.7-3.8-7.7-7.7C-896.8,126.9-847.8,40.5-785.4,40.5
	z"/>
<path class="st3" d="M-843.5,449.1l-1.5,31.8c-0.1,2.6-2.4,4.6-5,4.5l-31.8-1.5c-2.6-0.1-4.6-2.4-4.5-5l1.5-31.8
	c0.1-2.6,2.4-4.6,5-4.5l31.8,1.5C-845.5,444.2-843.4,446.5-843.5,449.1z"/>
<path class="st3" d="M-776.6,293.1L-789,323c-0.9,2.3-3.6,3.4-5.9,2.4l-29.9-12.4c-2.3-0.9-3.4-3.6-2.4-5.9l12.4-29.9
	c0.9-2.3,3.6-3.4,5.9-2.4l29.9,12.4C-776.8,288.2-775.7,290.8-776.6,293.1z"/>
<path class="st3" d="M-851.7,341.9l-15.2,55.3c-1.7,6.4-8.4,10.1-14.7,8.4l-55.3-15.2c-6.4-1.7-10.1-8.4-8.4-14.7l15.2-55.3
	c1.7-6.4,8.4-10.1,14.7-8.4l55.3,15.2C-853.7,328.9-849.9,335.5-851.7,341.9z"/>
<g>
	<rect x="-728.9" y="254.4" class="st3" width="502.4" height="251.2"/>
	<path class="st0" d="M-629.8,306.2l-24.4,32.6h-2.8l-23.9-32.7v54.5h-14.1v-75h16.3l23.5,32.3l23.5-32.3h16.2v75h-14.1V306.2z"/>
	<path class="st0" d="M-549.1,346.4h-39.2l-6.4,14.1H-610l33.6-75h15.4l33.7,75h-15.4L-549.1,346.4z M-568.7,301.3l-13.9,31.9h27.9
		L-568.7,301.3z"/>
	<path class="st0" d="M-475.7,303.7c-2.6-4.3-9.6-8.4-17.8-8.4c-10.5,0-15.5,4.4-15.5,10c0,6.5,7.7,8.4,16.7,9.4
		c15.6,1.9,30.2,6,30.2,23.9c0,16.7-14.8,23.9-31.5,23.9c-15.3,0-27.1-4.7-32.7-18.4l11.8-6.1c3.3,8.3,12,11.9,21.1,11.9
		c8.9,0,17.2-3.1,17.2-11.3c0-7.1-7.4-10-17.4-11c-15.3-1.8-29.5-5.9-29.5-22.7c0-15.4,15.2-21.8,29-21.9c11.7,0,23.8,3.3,29.5,14.9
		L-475.7,303.7z"/>
	<path class="st0" d="M-431.8,298.4h-23.8v-12.9c21.6,0,40,0,61.7,0v12.9h-23.8v62.1h-14.1V298.4z"/>
	<path class="st0" d="M-329.3,360.6h-56.2c0-25,0-50,0-75h56.2v13.7h-42.1v17.3h40.6v13.2h-40.6v16.9h42.1V360.6z"/>
	<path class="st0" d="M-258.1,286l-33.3,35.9l36.1,37.8v0.9h-17.5l-31.4-33.2v33.2h-14.1v-75h14.1v31.7l28.5-31.7h17.6V286z"/>
	<path class="st5" d="M-640.8,414.8c-2.6-4.3-9.7-8.5-18-8.5c-10.6,0-15.7,4.4-15.7,10.1c0,6.6,7.8,8.5,16.9,9.5
		c15.8,1.9,30.5,6.1,30.5,24.2c0,16.9-15,24.2-31.9,24.2c-15.5,0-27.4-4.8-33-18.6l11.9-6.2c3.4,8.3,12.1,12,21.3,12
		c9,0,17.4-3.1,17.4-11.4c0-7.2-7.5-10.1-17.5-11.2c-15.5-1.8-29.8-6-29.8-23c0-15.6,15.4-22,29.4-22.1c11.8,0,24.1,3.4,29.8,15.1
		L-640.8,414.8z"/>
	<path class="st5" d="M-596.4,409.5h-24.1v-13c21.9,0,40.4,0,62.4,0v13h-24v62.8h-14.3V409.5z"/>
	<path class="st5" d="M-474.8,434.8C-475,454.4-487,474-513.7,474s-39-19.2-39-39.1c0-19.9,12.8-40,39-40
		C-487.6,395-474.5,415-474.8,434.8z M-538.6,435.1c0.3,12.5,7,25.8,24.9,25.8c17.9,0,24.6-13.4,24.8-25.9
		c0.2-12.8-6.9-27.1-24.8-27.1C-531.5,408-538.9,422.4-538.6,435.1z"/>
	<path class="st5" d="M-396.9,472.3h-17L-436,447h-13.8v25.4h-14.3v-75.9c12,0,24.1,0.1,36.1,0.1c17.9,0.1,27.3,12,27.3,25.1
		c0,10.4-4.8,20.9-19.2,23.8l23,25.9V472.3z M-449.8,409.8v24.3h21.8c9.1,0,13-6.1,13-12.1c0-6.1-4-12.1-13-12.1H-449.8z"/>
	<path class="st5" d="M-326.5,472.3h-56.8c0-25.2,0-50.6,0-75.8h56.8v13.9h-42.6v17.4h41.1v13.3h-41.1v17.1h42.6V472.3z"/>
</g>
<g>
	<path class="st0" d="M287.6,105.4c41.6,0,74.2,57.6,74.2,131.7c0,2.6-2.6,5.1-5.1,5.1c-2.6,0-5.1-2.6-5.1-5.1
		c0-67.1-28.8-121.5-63.9-121.5s-63.9,54.4-63.9,121.5c0,2.6-2.6,5.1-5.1,5.1s-5.1-2.6-5.1-5.1C213.4,162.9,246,105.4,287.6,105.4z"
		/>
	<path class="st0" d="M493.1,224.7h-411L59,583.8c-1,16.3,12.5,30.7,28.8,30.7h399.5c16.3,0,29.8-14.4,28.8-30.7L493.1,224.7z"/>
	<polygon class="st1" points="493.1,225 82.1,225 148.4,210.5 109,198.1 466.2,198.1 426.9,210.5 	"/>
	<polygon class="st2" points="426.9,210.5 427.8,225 493.1,225 	"/>
	<polygon class="st0" points="466.2,198.1 469.1,219.9 426.9,210.5 	"/>
	<polygon class="st2" points="148.4,210.5 147.4,225 82.1,225 	"/>
	<polygon class="st0" points="109,198.1 106.1,219.9 148.4,210.5 	"/>
	<path class="st0" d="M287.6,80C350,80,399,166.5,399,277.9c0,3.8-3.8,7.7-7.7,7.7c-3.8,0-7.7-3.8-7.7-7.7
		c0-100.8-43.2-182.5-96-182.5s-96,81.6-96,182.5c0,3.8-3.8,7.7-7.7,7.7c-3.8,0-7.7-3.8-7.7-7.7C176.2,166.5,225.2,80,287.6,80z"/>
	<path class="st3" d="M214.3,483.2l-16.8,35.1c-1.1,2.4-4,3.4-6.3,2.2l-35.1-16.8c-2.4-1.1-3.4-4-2.2-6.3l16.8-35.1
		c1.1-2.4,4-3.4,6.3-2.2l35.1,16.8C214.5,478,215.5,480.9,214.3,483.2z"/>
	<path class="st3" d="M358,345.4l-28.1,27.7c-1.8,1.7-4.6,1.7-6.3,0L295.9,345c-1.7-1.8-1.7-4.6,0-6.3l28.1-27.7
		c1.8-1.7,4.6-1.7,6.3,0l27.7,28.1C359.8,340.8,359.8,343.6,358,345.4z"/>
	<path class="st3" d="M255.4,362.8l-44.2,56.1c-4.1,5.2-11.7,6.1-16.9,2l-56.1-44.2c-5.2-4.1-6.1-11.7-2-16.9l44.2-56.1
		c4.1-5.2,11.7-6.1,16.9-2l56.1,44.2C258.6,350,259.5,357.6,255.4,362.8z"/>
</g>
<g>
	<path class="st6" d="M776.9,384.2L702,484h-8.5l-73.2-100.1v167.1h-43.3V321.1h49.9l71.9,98.8l71.9-98.8h49.6v229.8h-43.3V384.2z"
		/>
	<path class="st6" d="M1024.2,507.3H904.1l-19.7,43.3h-46.9l103.1-229.8h47.3l103.1,229.8h-47.3L1024.2,507.3z M964.2,369.1
		l-42.7,97.8h85.4L964.2,369.1z"/>
	<path class="st6" d="M1248.9,376.3c-7.9-13.1-29.5-25.6-54.5-25.6c-32.2,0-47.6,13.5-47.6,30.5c0,20,23.6,25.6,51.2,28.9
		c47.9,5.9,92.6,18.4,92.6,73.2c0,51.2-45.3,73.2-96.5,73.2c-46.9,0-83.1-14.4-100.1-56.5l36.1-18.7c10.2,25.3,36.8,36.4,64.7,36.4
		c27.2,0,52.8-9.5,52.8-34.5c0-21.7-22.6-30.5-53.2-33.8c-47-5.6-90.3-18.1-90.3-69.6c0-47.3,46.6-66.7,89-67
		c35.8,0,72.9,10.2,90.3,45.6L1248.9,376.3z"/>
	<path class="st6" d="M1383.7,360.2h-72.9v-39.4c66.3,0,122.5,0,189.1,0v39.4H1427v190.4h-43.3V360.2z"/>
	<path class="st6" d="M1697.6,550.6h-172c0-76.5,0-153.3,0-229.8h172v42h-129v52.9H1693v40.4h-124.4v51.9h129V550.6z"/>
	<path class="st6" d="M1915.7,322.1l-102.1,110L1924.3,548v2.6h-53.5l-96.2-101.8v101.8h-43.3V320.8h43.3V418l87.3-97.2h53.8V322.1z
		"/>
</g>
<g>
	<path class="st0" d="M2171,375.6c-7.9-13.3-29.9-25.9-55.1-25.9c-32.5,0-48.1,13.6-48.1,30.9c0,20.2,23.9,25.9,51.8,29.2
		c48.5,6,93.6,18.6,93.6,74c0,51.8-45.8,74-97.6,74c-47.5,0-84-14.6-101.2-57.1l36.5-18.9c10.3,25.6,37.2,36.9,65.4,36.9
		c27.5,0,53.4-9.6,53.4-34.9c0-21.9-22.9-30.9-53.8-34.2c-47.5-5.6-91.3-18.3-91.3-70.4c0-47.8,47.1-67.4,90-67.7
		c36.2,0,73.7,10.3,91.3,46.1L2171,375.6z"/>
	<path class="st0" d="M2307.2,359.4h-73.7v-39.8c67.1,0,123.8,0,191.2,0v39.8H2351v192.5h-43.8V359.4z"/>
	<path class="st0" d="M2679.7,437c-0.6,60.1-37.5,120.2-119.2,120.2c-81.7,0-119.5-58.8-119.5-119.8c0-61.1,39.2-122.5,119.5-122.5
		C2640.6,314.9,2680.4,376.3,2679.7,437z M2484.2,438c1,38.2,21.6,79,76.3,79c54.8,0,75.4-41.2,76-79.3c0.6-39.2-21.2-83-76-83
		C2505.8,354.7,2483.2,398.9,2484.2,438z"/>
	<path class="st0" d="M2918.2,551.9h-52.1l-67.7-77.7h-42.2v77.7h-43.8V319.2c36.8,0,73.7,0.3,110.6,0.3c54.8,0.3,83.7,36.9,83.7,77
		c0,31.9-14.6,64.1-58.8,73l70.4,79.3V551.9z M2756.2,360.3v74.4h66.7c27.9,0,39.8-18.6,39.8-37.2c0-18.6-12.3-37.2-39.8-37.2
		H2756.2z"/>
	<path class="st0" d="M3134,551.9h-174c0-77.3,0-155,0-232.4h174V362h-130.5v53.5h125.8v40.8h-125.8v52.5H3134V551.9z"/>
</g>
</svg>
